<?xml version="1.0" standalone="no"?>
<!DOCTYPE svg PUBLIC "-//W3C//DTD SVG 20010904//EN"
 "http://www.w3.org/TR/2001/REC-SVG-20010904/DTD/svg10.dtd">
<svg version="1.0" xmlns="http://www.w3.org/2000/svg"
 width="256.000000pt" height="256.000000pt" viewBox="0 0 256.000000 256.000000"
 preserveAspectRatio="xMidYMid meet">
<metadata>
Created by potrace 1.14, written by Peter Selinger 2001-2017
</metadata>
<g transform="translate(0.000000,256.000000) scale(0.100000,-0.100000)"
fill="#000000" stroke="none">
<path d="M375 2536 c-89 -29 -142 -62 -216 -135 -77 -78 -116 -143 -141 -238
-10 -37 -13 -241 -13 -883 0 -782 1 -839 18 -895 56 -183 196 -320 374 -367
37 -10 241 -13 883 -13 927 0 880 -3 1012 67 69 37 166 135 201 204 65 128 62
85 62 999 0 618 -3 843 -12 882 -42 176 -185 325 -362 377 -48 14 -155 16
-910 15 -667 0 -865 -3 -896 -13z m1780 -263 c47 -25 95 -74 121 -123 18 -33
19 -75 19 -870 0 -795 -1 -837 -19 -870 -26 -49 -74 -98 -121 -123 l-40 -22
-835 0 -835 0 -40 22 c-47 25 -95 74 -121 123 -18 33 -19 75 -19 870 0 795 1
837 19 870 36 68 97 119 166 141 14 4 394 7 845 6 820 -2 820 -2 860 -24z"/>
<path d="M1205 2018 c-47 -37 -55 -72 -55 -247 l0 -161 -47 6 c-27 2 -62 7
-80 9 -61 7 -167 -15 -241 -50 -96 -45 -167 -117 -217 -218 -34 -70 -39 -86
-43 -175 -3 -74 0 -113 13 -158 50 -173 199 -306 378 -337 84 -14 386 15 432
41 66 39 65 27 65 645 0 605 0 602 -55 645 -20 16 -42 22 -75 22 -33 0 -55 -6
-75 -22z m-122 -655 l67 -6 0 -203 0 -202 -49 -7 c-140 -19 -222 2 -280 71
-89 109 -55 266 72 329 54 26 79 29 190 18z"/>
<path d="M1705 2007 c-43 -43 -52 -79 -34 -131 53 -152 281 -81 239 74 -15 57
-60 90 -122 90 -43 0 -54 -4 -83 -33z"/>
<path d="M1722 1640 c-61 -37 -62 -48 -62 -480 0 -441 0 -441 -80 -544 -61
-80 -55 -163 15 -206 85 -52 183 7 258 155 59 118 60 126 64 565 4 318 2 413
-9 445 -25 76 -116 108 -186 65z"/>
</g>
</svg>
